{
  "development": {
    "username": "postgres",
    "password": "123456",
    "database": "cnd-node",
    "host": "127.0.0.1",
    "port": "5432",
    "dialect": "postgres"
  },
  "test": {
    "username": "postgres",
    "password": "123456",
    "database": "cnd-node",
    "host": "127.0.0.1",
    "port": "5432",
    "dialect": "postgres"
  },
  "production": {
    "username": "postgres",
    "password": "123456",
    "database": "cnd-node",
    "host": "127.0.0.1",
    "port": "5432",
    "dialect": "postgres"
  }
}
